[
	{"_id": "a", "name":"Clearsight","type":"autosoft","img":"systems/shadowrun-sixth-world/assets/icons/status/704408-TrueSight.png","data":{"attribute": "Sensor", "rank":  0,"description":"Acts as the drones perception skill"},"effects":[],"folder":null,"sort":0,"permission":{"default":0,"j5VwRQD7ju7FWdv6":3},"flags":{}},
	{"_id": "b", "name":"Electronic Warfare","type":"autosoft","img":"systems/shadowrun-sixth-world/assets/icons/status/704360-Shock.png","data":{"attribute": "Sensor", "rank":  0,"description":"Used for jamming and overcoming ECM"},"effects":[],"folder":null,"sort":0,"permission":{"default":0,"j5VwRQD7ju7FWdv6":3},"flags":{}},
	{"_id": "c", "name":"Evasion","type":"autosoft","img":"systems/shadowrun-sixth-world/assets/icons/status/704300-Prone.png","data":{"attribute": "Pilot", "rank":  0,"description":"Used to avoid being hit"},"effects":[],"folder":null,"sort":0,"permission":{"default":0,"j5VwRQD7ju7FWdv6":3},"flags":{}},
	{"_id": "d", "name":"Maneuvering","type":"autosoft","img":"systems/shadowrun-sixth-world/assets/icons/status/704248-Haste.png","data":{"attribute": "Pilot", "rank":  0,"description":"Piloting skill for the drone"},"effects":[],"folder":null,"sort":0,"permission":{"default":0,"j5VwRQD7ju7FWdv6":3},"flags":{}},
	{"_id": "e", "name":"Stealth","type":"autosoft","img":"systems/shadowrun-sixth-world/assets/icons/status/704384-Stealth.png","data":{"attribute": "Pilot", "rank":  0,"description":"Same as the skill"},"effects":[],"folder":null,"sort":0,"permission":{"default":0,"j5VwRQD7ju7FWdv6":3},"flags":{}},
	{"_id": "f", "name":"[Weapon] Targeting","type":"autosoft","img":"systems/shadowrun-sixth-world/assets/icons/status/704080-Aim.png","data":{"attribute": "Sensor", "rank":  0,"description":"Targeting control for a specific weapon"},"effects":[],"folder":null,"sort":0,"permission":{"default":0,"j5VwRQD7ju7FWdv6":3},"flags":{}}
]